68,28,18,red
64,27,19,red
66,23,14,red
66,28,27,red
63,25,16,red
67,30,24,red
70,21,4,red
68,28,20,red
67,30,24,red
78,116,43,yellow
91,121,67,yellow
92,120,61,yellow
95,121,56,yellow
95,121,56,yellow
96,119,67,yellow
89,120,61,yellow
93,122,58,yellow
98,119,60,yellow
48,119,63,green
48,118,68,green
49,116,63,green
49,118,64,green
50,118,67,green
73,118,37,green
47,117,67,green
50,118,67,green
66,124,138,cyan
68,123,144,cyan
60,123,140,cyan
61,124,139,cyan
66,124,138,cyan
66,122,139,cyan
66,124,138,cyan
65,123,137,cyan
25,35,132,blue
27,33,131,blue
29,37,135,blue
25,30,134,blue
25,33,132,blue
26,32,126,blue
26,35,128,blue
77,43,130,magenta
74,46,133,magenta
73,44,134,magenta
72,46,137,magenta
72,45,138,magenta
74,47,126,magenta
78,41,136,magenta
75,36,127,magenta
14,16,13,black
16,18,17,black
19,17,18,black
15,17,16,black
15,13,14,black
8,14,12,black
17,18,13,black
18,20,19,black
